^C:\USERS\ERIC\DOCUMENTS\VISUAL STUDIO 2013\LIBRARIES\GLEW-1.10.0\SRC\GLEWINFO.C
C:\USERS\ERIC\DOCUMENTS\VISUAL STUDIO 2013\LIBRARIES\GLEW-1.10.0\BUILD\VC10\TMP\GLEWINFO\DEBUG\X64\VC120.PDB
C:\USERS\ERIC\DOCUMENTS\VISUAL STUDIO 2013\LIBRARIES\GLEW-1.10.0\BUILD\VC10\TMP\GLEWINFO\DEBUG\X64\GLEWINFO.OBJ
