^C:\Users\Eric\Documents\Visual Studio 2013\Libraries\SFML-2.1\build\src\SFML\Network\sfml-network.vcxproj
C:\Users\Eric\Documents\Visual Studio 2013\Libraries\SFML-2.1\build\lib\Release\sfml-network.lib
C:\Users\Eric\Documents\Visual Studio 2013\Libraries\SFML-2.1\build\lib\Release\sfml-network.exp
