^C:\Users\Eric\Documents\Visual Studio 2013\Libraries\SFML-2.1\build\src\SFML\Graphics\sfml-graphics.vcxproj
C:\Users\Eric\Documents\Visual Studio 2013\Libraries\SFML-2.1\build\lib\Debug\sfml-graphics-d.lib
C:\Users\Eric\Documents\Visual Studio 2013\Libraries\SFML-2.1\build\lib\Debug\sfml-graphics-d.exp
