^C:\USERS\ERIC\DOCUMENTS\VISUAL STUDIO 2013\LIBRARIES\SFML-2.1\SRC\SFML\AUDIO\CMAKELISTS.TXT
C:\PROGRAM FILES (X86)\CMAKE 2.8\SHARE\CMAKE-2.8\MODULES\FINDOPENAL.CMAKE
C:\PROGRAM FILES (X86)\CMAKE 2.8\SHARE\CMAKE-2.8\MODULES\FINDPACKAGEHANDLESTANDARDARGS.CMAKE
C:\PROGRAM FILES (X86)\CMAKE 2.8\SHARE\CMAKE-2.8\MODULES\FINDPACKAGEMESSAGE.CMAKE
C:\PROGRAM FILES (X86)\CMAKE 2.8\SHARE\CMAKE-2.8\MODULES\CMAKEPARSEARGUMENTS.CMAKE
C:\USERS\ERIC\DOCUMENTS\VISUAL STUDIO 2013\LIBRARIES\SFML-2.1\CMAKE\MODULES\FINDSNDFILE.CMAKE
