^C:\USERS\ERIC\DOCUMENTS\VISUAL STUDIO 2013\LIBRARIES\SFML-2.1\BUILD\SRC\SFML\NETWORK\SFML-NETWORK.DIR\DEBUG\FTP.OBJ|C:\USERS\ERIC\DOCUMENTS\VISUAL STUDIO 2013\LIBRARIES\SFML-2.1\BUILD\SRC\SFML\NETWORK\SFML-NETWORK.DIR\DEBUG\HTTP.OBJ|C:\USERS\ERIC\DOCUMENTS\VISUAL STUDIO 2013\LIBRARIES\SFML-2.1\BUILD\SRC\SFML\NETWORK\SFML-NETWORK.DIR\DEBUG\IPADDRESS.OBJ|C:\USERS\ERIC\DOCUMENTS\VISUAL STUDIO 2013\LIBRARIES\SFML-2.1\BUILD\SRC\SFML\NETWORK\SFML-NETWORK.DIR\DEBUG\PACKET.OBJ|C:\USERS\ERIC\DOCUMENTS\VISUAL STUDIO 2013\LIBRARIES\SFML-2.1\BUILD\SRC\SFML\NETWORK\SFML-NETWORK.DIR\DEBUG\SOCKET.OBJ|C:\USERS\ERIC\DOCUMENTS\VISUAL STUDIO 2013\LIBRARIES\SFML-2.1\BUILD\SRC\SFML\NETWORK\SFML-NETWORK.DIR\DEBUG\SOCKETIMPL.OBJ|C:\USERS\ERIC\DOCUMENTS\VISUAL STUDIO 2013\LIBRARIES\SFML-2.1\BUILD\SRC\SFML\NETWORK\SFML-NETWORK.DIR\DEBUG\SOCKETSELECTOR.OBJ|C:\USERS\ERIC\DOCUMENTS\VISUAL STUDIO 2013\LIBRARIES\SFML-2.1\BUILD\SRC\SFML\NETWORK\SFML-NETWORK.DIR\DEBUG\TCPLISTENER.OBJ|C:\USERS\ERIC\DOCUMENTS\VISUAL STUDIO 2013\LIBRARIES\SFML-2.1\BUILD\SRC\SFML\NETWORK\SFML-NETWORK.DIR\DEBUG\TCPSOCKET.OBJ|C:\USERS\ERIC\DOCUMENTS\VISUAL STUDIO 2013\LIBRARIES\SFML-2.1\BUILD\SRC\SFML\NETWORK\SFML-NETWORK.DIR\DEBUG\UDPSOCKET.OBJ
C:\USERS\ERIC\DOCUMENTS\VISUAL STUDIO 2013\LIBRARIES\SFML-2.1\BUILD\LIB\DEBUG\SFML-NETWORK-D-2.ILK
C:\USERS\ERIC\DOCUMENTS\VISUAL STUDIO 2013\LIBRARIES\SFML-2.1\BUILD\LIB\DEBUG\SFML-NETWORK-D-2.DLL
C:\USERS\ERIC\DOCUMENTS\VISUAL STUDIO 2013\LIBRARIES\SFML-2.1\BUILD\LIB\DEBUG\SFML-NETWORK-D.PDB
