^C:\USERS\ERIC\DOCUMENTS\VISUAL STUDIO 2013\LIBRARIES\SFML-2.1\BUILD\SRC\SFML\AUDIO\SFML-AUDIO.DIR\RELEASE\ALCHECK.OBJ|C:\USERS\ERIC\DOCUMENTS\VISUAL STUDIO 2013\LIBRARIES\SFML-2.1\BUILD\SRC\SFML\AUDIO\SFML-AUDIO.DIR\RELEASE\AUDIODEVICE.OBJ|C:\USERS\ERIC\DOCUMENTS\VISUAL STUDIO 2013\LIBRARIES\SFML-2.1\BUILD\SRC\SFML\AUDIO\SFML-AUDIO.DIR\RELEASE\LISTENER.OBJ|C:\USERS\ERIC\DOCUMENTS\VISUAL STUDIO 2013\LIBRARIES\SFML-2.1\BUILD\SRC\SFML\AUDIO\SFML-AUDIO.DIR\RELEASE\MUSIC.OBJ|C:\USERS\ERIC\DOCUMENTS\VISUAL STUDIO 2013\LIBRARIES\SFML-2.1\BUILD\SRC\SFML\AUDIO\SFML-AUDIO.DIR\RELEASE\SOUND.OBJ|C:\USERS\ERIC\DOCUMENTS\VISUAL STUDIO 2013\LIBRARIES\SFML-2.1\BUILD\SRC\SFML\AUDIO\SFML-AUDIO.DIR\RELEASE\SOUNDBUFFER.OBJ|C:\USERS\ERIC\DOCUMENTS\VISUAL STUDIO 2013\LIBRARIES\SFML-2.1\BUILD\SRC\SFML\AUDIO\SFML-AUDIO.DIR\RELEASE\SOUNDBUFFERRECORDER.OBJ|C:\USERS\ERIC\DOCUMENTS\VISUAL STUDIO 2013\LIBRARIES\SFML-2.1\BUILD\SRC\SFML\AUDIO\SFML-AUDIO.DIR\RELEASE\SOUNDFILE.OBJ|C:\USERS\ERIC\DOCUMENTS\VISUAL STUDIO 2013\LIBRARIES\SFML-2.1\BUILD\SRC\SFML\AUDIO\SFML-AUDIO.DIR\RELEASE\SOUNDRECORDER.OBJ|C:\USERS\ERIC\DOCUMENTS\VISUAL STUDIO 2013\LIBRARIES\SFML-2.1\BUILD\SRC\SFML\AUDIO\SFML-AUDIO.DIR\RELEASE\SOUNDSOURCE.OBJ|C:\USERS\ERIC\DOCUMENTS\VISUAL STUDIO 2013\LIBRARIES\SFML-2.1\BUILD\SRC\SFML\AUDIO\SFML-AUDIO.DIR\RELEASE\SOUNDSTREAM.OBJ
C:\PROGRAM FILES (X86)\WINDOWS KITS\8.1\LIB\WINV6.3\UM\X64\KERNEL32.LIB
C:\PROGRAM FILES (X86)\WINDOWS KITS\8.1\LIB\WINV6.3\UM\X64\USER32.LIB
C:\PROGRAM FILES (X86)\WINDOWS KITS\8.1\LIB\WINV6.3\UM\X64\GDI32.LIB
C:\PROGRAM FILES (X86)\WINDOWS KITS\8.1\LIB\WINV6.3\UM\X64\WINSPOOL.LIB
C:\PROGRAM FILES (X86)\WINDOWS KITS\8.1\LIB\WINV6.3\UM\X64\SHELL32.LIB
C:\PROGRAM FILES (X86)\WINDOWS KITS\8.1\LIB\WINV6.3\UM\X64\OLE32.LIB
C:\PROGRAM FILES (X86)\WINDOWS KITS\8.1\LIB\WINV6.3\UM\X64\OLEAUT32.LIB
C:\PROGRAM FILES (X86)\WINDOWS KITS\8.1\LIB\WINV6.3\UM\X64\UUID.LIB
C:\PROGRAM FILES (X86)\WINDOWS KITS\8.1\LIB\WINV6.3\UM\X64\COMDLG32.LIB
C:\PROGRAM FILES (X86)\WINDOWS KITS\8.1\LIB\WINV6.3\UM\X64\ADVAPI32.LIB
C:\USERS\ERIC\DOCUMENTS\VISUAL STUDIO 2013\LIBRARIES\SFML-2.1\BUILD\LIB\RELEASE\SFML-SYSTEM.LIB
C:\USERS\ERIC\DOCUMENTS\VISUAL STUDIO 2013\LIBRARIES\SFML-2.1\EXTLIBS\LIBS-MSVC\X64\OPENAL32.LIB
C:\USERS\ERIC\DOCUMENTS\VISUAL STUDIO 2013\LIBRARIES\SFML-2.1\EXTLIBS\LIBS-MSVC\X64\SNDFILE.LIB
C:\USERS\ERIC\DOCUMENTS\VISUAL STUDIO 2013\LIBRARIES\SFML-2.1\BUILD\SRC\SFML\AUDIO\SFML-AUDIO.DIR\RELEASE\ALCHECK.OBJ
C:\USERS\ERIC\DOCUMENTS\VISUAL STUDIO 2013\LIBRARIES\SFML-2.1\BUILD\SRC\SFML\AUDIO\SFML-AUDIO.DIR\RELEASE\AUDIODEVICE.OBJ
C:\USERS\ERIC\DOCUMENTS\VISUAL STUDIO 2013\LIBRARIES\SFML-2.1\BUILD\SRC\SFML\AUDIO\SFML-AUDIO.DIR\RELEASE\LISTENER.OBJ
C:\USERS\ERIC\DOCUMENTS\VISUAL STUDIO 2013\LIBRARIES\SFML-2.1\BUILD\SRC\SFML\AUDIO\SFML-AUDIO.DIR\RELEASE\MUSIC.OBJ
C:\USERS\ERIC\DOCUMENTS\VISUAL STUDIO 2013\LIBRARIES\SFML-2.1\BUILD\SRC\SFML\AUDIO\SFML-AUDIO.DIR\RELEASE\SOUND.OBJ
C:\USERS\ERIC\DOCUMENTS\VISUAL STUDIO 2013\LIBRARIES\SFML-2.1\BUILD\SRC\SFML\AUDIO\SFML-AUDIO.DIR\RELEASE\SOUNDBUFFER.OBJ
C:\USERS\ERIC\DOCUMENTS\VISUAL STUDIO 2013\LIBRARIES\SFML-2.1\BUILD\SRC\SFML\AUDIO\SFML-AUDIO.DIR\RELEASE\SOUNDBUFFERRECORDER.OBJ
C:\USERS\ERIC\DOCUMENTS\VISUAL STUDIO 2013\LIBRARIES\SFML-2.1\BUILD\SRC\SFML\AUDIO\SFML-AUDIO.DIR\RELEASE\SOUNDFILE.OBJ
C:\USERS\ERIC\DOCUMENTS\VISUAL STUDIO 2013\LIBRARIES\SFML-2.1\BUILD\SRC\SFML\AUDIO\SFML-AUDIO.DIR\RELEASE\SOUNDRECORDER.OBJ
C:\USERS\ERIC\DOCUMENTS\VISUAL STUDIO 2013\LIBRARIES\SFML-2.1\BUILD\SRC\SFML\AUDIO\SFML-AUDIO.DIR\RELEASE\SOUNDSOURCE.OBJ
C:\USERS\ERIC\DOCUMENTS\VISUAL STUDIO 2013\LIBRARIES\SFML-2.1\BUILD\SRC\SFML\AUDIO\SFML-AUDIO.DIR\RELEASE\SOUNDSTREAM.OBJ
C:\WINDOWS\GLOBALIZATION\SORTING\SORTDEFAULT.NLS
C:\PROGRAM FILES (X86)\MICROSOFT VISUAL STUDIO 12.0\VC\LIB\AMD64\MSVCPRT.LIB
C:\PROGRAM FILES (X86)\MICROSOFT VISUAL STUDIO 12.0\VC\LIB\AMD64\MSVCRT.LIB
C:\PROGRAM FILES (X86)\MICROSOFT VISUAL STUDIO 12.0\VC\LIB\AMD64\OLDNAMES.LIB
C:\WINDOWS\SYSTEM32\TZRES.DLL
C:\PROGRAM FILES (X86)\MICROSOFT VISUAL STUDIO 12.0\VC\BIN\X86_AMD64\1033\LINKUI.DLL
C:\PROGRAM FILES (X86)\WINDOWS KITS\8.1\BIN\X86\RC.EXE
C:\PROGRAM FILES (X86)\MICROSOFT VISUAL STUDIO 12.0\VC\BIN\CVTRES.EXE
C:\WINDOWS\SYSTEM32\RSAENH.DLL
