^C:\Users\Eric\Documents\Visual Studio 2013\Libraries\SFML-2.1\build\src\SFML\Audio\sfml-audio.vcxproj
C:\Users\Eric\Documents\Visual Studio 2013\Libraries\SFML-2.1\build\lib\Release\sfml-audio.lib
C:\Users\Eric\Documents\Visual Studio 2013\Libraries\SFML-2.1\build\lib\Release\sfml-audio.exp
