^C:\USERS\ERIC\DOCUMENTS\VISUAL STUDIO 2013\LIBRARIES\SFML-2.1\SRC\SFML\GRAPHICS\COLOR.CPP
/c /I"C:/Users/Eric/Documents/Visual Studio 2013/Libraries/SFML-2.1/include" /I"C:/Users/Eric/Documents/Visual Studio 2013/Libraries/SFML-2.1/src" /I"C:/Users/Eric/Documents/Visual Studio 2013/Libraries/SFML-2.1/extlibs/headers/libfreetype/windows" /I"C:/Users/Eric/Documents/Visual Studio 2013/Libraries/SFML-2.1/extlibs/headers" /I"C:/Users/Eric/Documents/Visual Studio 2013/Libraries/SFML-2.1/extlibs/headers/jpeg" /nologo /W3 /WX- /O2 /Ob2 /D WIN32 /D _WINDOWS /D NDEBUG /D _CRT_SECURE_NO_DEPRECATE /D GLEW_STATIC /D STBI_FAILURE_USERMSG /D "CMAKE_INTDIR=\"Release\"" /D SFML_GRAPHICS_EXPORTS /D _WINDLL /D _MBCS /Gm- /EHsc /MD /GS /fp:precise /Zc:wchar_t /Zc:forScope /GR /Fo"SFML-GRAPHICS.DIR\RELEASE\\" /Fd"SFML-GRAPHICS.DIR\RELEASE\VC120.PDB" /Gd /TP C:\USERS\ERIC\DOCUMENTS\VISUAL STUDIO 2013\LIBRARIES\SFML-2.1\SRC\SFML\GRAPHICS\COLOR.CPP
^C:\USERS\ERIC\DOCUMENTS\VISUAL STUDIO 2013\LIBRARIES\SFML-2.1\SRC\SFML\GRAPHICS\FONT.CPP
/c /I"C:/Users/Eric/Documents/Visual Studio 2013/Libraries/SFML-2.1/include" /I"C:/Users/Eric/Documents/Visual Studio 2013/Libraries/SFML-2.1/src" /I"C:/Users/Eric/Documents/Visual Studio 2013/Libraries/SFML-2.1/extlibs/headers/libfreetype/windows" /I"C:/Users/Eric/Documents/Visual Studio 2013/Libraries/SFML-2.1/extlibs/headers" /I"C:/Users/Eric/Documents/Visual Studio 2013/Libraries/SFML-2.1/extlibs/headers/jpeg" /nologo /W3 /WX- /O2 /Ob2 /D WIN32 /D _WINDOWS /D NDEBUG /D _CRT_SECURE_NO_DEPRECATE /D GLEW_STATIC /D STBI_FAILURE_USERMSG /D "CMAKE_INTDIR=\"Release\"" /D SFML_GRAPHICS_EXPORTS /D _WINDLL /D _MBCS /Gm- /EHsc /MD /GS /fp:precise /Zc:wchar_t /Zc:forScope /GR /Fo"SFML-GRAPHICS.DIR\RELEASE\\" /Fd"SFML-GRAPHICS.DIR\RELEASE\VC120.PDB" /Gd /TP C:\USERS\ERIC\DOCUMENTS\VISUAL STUDIO 2013\LIBRARIES\SFML-2.1\SRC\SFML\GRAPHICS\FONT.CPP
^C:\USERS\ERIC\DOCUMENTS\VISUAL STUDIO 2013\LIBRARIES\SFML-2.1\SRC\SFML\GRAPHICS\GLCHECK.CPP
/c /I"C:/Users/Eric/Documents/Visual Studio 2013/Libraries/SFML-2.1/include" /I"C:/Users/Eric/Documents/Visual Studio 2013/Libraries/SFML-2.1/src" /I"C:/Users/Eric/Documents/Visual Studio 2013/Libraries/SFML-2.1/extlibs/headers/libfreetype/windows" /I"C:/Users/Eric/Documents/Visual Studio 2013/Libraries/SFML-2.1/extlibs/headers" /I"C:/Users/Eric/Documents/Visual Studio 2013/Libraries/SFML-2.1/extlibs/headers/jpeg" /nologo /W3 /WX- /O2 /Ob2 /D WIN32 /D _WINDOWS /D NDEBUG /D _CRT_SECURE_NO_DEPRECATE /D GLEW_STATIC /D STBI_FAILURE_USERMSG /D "CMAKE_INTDIR=\"Release\"" /D SFML_GRAPHICS_EXPORTS /D _WINDLL /D _MBCS /Gm- /EHsc /MD /GS /fp:precise /Zc:wchar_t /Zc:forScope /GR /Fo"SFML-GRAPHICS.DIR\RELEASE\\" /Fd"SFML-GRAPHICS.DIR\RELEASE\VC120.PDB" /Gd /TP C:\USERS\ERIC\DOCUMENTS\VISUAL STUDIO 2013\LIBRARIES\SFML-2.1\SRC\SFML\GRAPHICS\GLCHECK.CPP
^C:\USERS\ERIC\DOCUMENTS\VISUAL STUDIO 2013\LIBRARIES\SFML-2.1\SRC\SFML\GRAPHICS\IMAGE.CPP
/c /I"C:/Users/Eric/Documents/Visual Studio 2013/Libraries/SFML-2.1/include" /I"C:/Users/Eric/Documents/Visual Studio 2013/Libraries/SFML-2.1/src" /I"C:/Users/Eric/Documents/Visual Studio 2013/Libraries/SFML-2.1/extlibs/headers/libfreetype/windows" /I"C:/Users/Eric/Documents/Visual Studio 2013/Libraries/SFML-2.1/extlibs/headers" /I"C:/Users/Eric/Documents/Visual Studio 2013/Libraries/SFML-2.1/extlibs/headers/jpeg" /nologo /W3 /WX- /O2 /Ob2 /D WIN32 /D _WINDOWS /D NDEBUG /D _CRT_SECURE_NO_DEPRECATE /D GLEW_STATIC /D STBI_FAILURE_USERMSG /D "CMAKE_INTDIR=\"Release\"" /D SFML_GRAPHICS_EXPORTS /D _WINDLL /D _MBCS /Gm- /EHsc /MD /GS /fp:precise /Zc:wchar_t /Zc:forScope /GR /Fo"SFML-GRAPHICS.DIR\RELEASE\\" /Fd"SFML-GRAPHICS.DIR\RELEASE\VC120.PDB" /Gd /TP C:\USERS\ERIC\DOCUMENTS\VISUAL STUDIO 2013\LIBRARIES\SFML-2.1\SRC\SFML\GRAPHICS\IMAGE.CPP
^C:\USERS\ERIC\DOCUMENTS\VISUAL STUDIO 2013\LIBRARIES\SFML-2.1\SRC\SFML\GRAPHICS\IMAGELOADER.CPP
/c /I"C:/Users/Eric/Documents/Visual Studio 2013/Libraries/SFML-2.1/include" /I"C:/Users/Eric/Documents/Visual Studio 2013/Libraries/SFML-2.1/src" /I"C:/Users/Eric/Documents/Visual Studio 2013/Libraries/SFML-2.1/extlibs/headers/libfreetype/windows" /I"C:/Users/Eric/Documents/Visual Studio 2013/Libraries/SFML-2.1/extlibs/headers" /I"C:/Users/Eric/Documents/Visual Studio 2013/Libraries/SFML-2.1/extlibs/headers/jpeg" /nologo /W3 /WX- /O2 /Ob2 /D WIN32 /D _WINDOWS /D NDEBUG /D _CRT_SECURE_NO_DEPRECATE /D GLEW_STATIC /D STBI_FAILURE_USERMSG /D "CMAKE_INTDIR=\"Release\"" /D SFML_GRAPHICS_EXPORTS /D _WINDLL /D _MBCS /Gm- /EHsc /MD /GS /fp:precise /Zc:wchar_t /Zc:forScope /GR /Fo"SFML-GRAPHICS.DIR\RELEASE\\" /Fd"SFML-GRAPHICS.DIR\RELEASE\VC120.PDB" /Gd /TP C:\USERS\ERIC\DOCUMENTS\VISUAL STUDIO 2013\LIBRARIES\SFML-2.1\SRC\SFML\GRAPHICS\IMAGELOADER.CPP
^C:\USERS\ERIC\DOCUMENTS\VISUAL STUDIO 2013\LIBRARIES\SFML-2.1\SRC\SFML\GRAPHICS\RENDERSTATES.CPP
/c /I"C:/Users/Eric/Documents/Visual Studio 2013/Libraries/SFML-2.1/include" /I"C:/Users/Eric/Documents/Visual Studio 2013/Libraries/SFML-2.1/src" /I"C:/Users/Eric/Documents/Visual Studio 2013/Libraries/SFML-2.1/extlibs/headers/libfreetype/windows" /I"C:/Users/Eric/Documents/Visual Studio 2013/Libraries/SFML-2.1/extlibs/headers" /I"C:/Users/Eric/Documents/Visual Studio 2013/Libraries/SFML-2.1/extlibs/headers/jpeg" /nologo /W3 /WX- /O2 /Ob2 /D WIN32 /D _WINDOWS /D NDEBUG /D _CRT_SECURE_NO_DEPRECATE /D GLEW_STATIC /D STBI_FAILURE_USERMSG /D "CMAKE_INTDIR=\"Release\"" /D SFML_GRAPHICS_EXPORTS /D _WINDLL /D _MBCS /Gm- /EHsc /MD /GS /fp:precise /Zc:wchar_t /Zc:forScope /GR /Fo"SFML-GRAPHICS.DIR\RELEASE\\" /Fd"SFML-GRAPHICS.DIR\RELEASE\VC120.PDB" /Gd /TP C:\USERS\ERIC\DOCUMENTS\VISUAL STUDIO 2013\LIBRARIES\SFML-2.1\SRC\SFML\GRAPHICS\RENDERSTATES.CPP
^C:\USERS\ERIC\DOCUMENTS\VISUAL STUDIO 2013\LIBRARIES\SFML-2.1\SRC\SFML\GRAPHICS\RENDERTEXTURE.CPP
/c /I"C:/Users/Eric/Documents/Visual Studio 2013/Libraries/SFML-2.1/include" /I"C:/Users/Eric/Documents/Visual Studio 2013/Libraries/SFML-2.1/src" /I"C:/Users/Eric/Documents/Visual Studio 2013/Libraries/SFML-2.1/extlibs/headers/libfreetype/windows" /I"C:/Users/Eric/Documents/Visual Studio 2013/Libraries/SFML-2.1/extlibs/headers" /I"C:/Users/Eric/Documents/Visual Studio 2013/Libraries/SFML-2.1/extlibs/headers/jpeg" /nologo /W3 /WX- /O2 /Ob2 /D WIN32 /D _WINDOWS /D NDEBUG /D _CRT_SECURE_NO_DEPRECATE /D GLEW_STATIC /D STBI_FAILURE_USERMSG /D "CMAKE_INTDIR=\"Release\"" /D SFML_GRAPHICS_EXPORTS /D _WINDLL /D _MBCS /Gm- /EHsc /MD /GS /fp:precise /Zc:wchar_t /Zc:forScope /GR /Fo"SFML-GRAPHICS.DIR\RELEASE\\" /Fd"SFML-GRAPHICS.DIR\RELEASE\VC120.PDB" /Gd /TP C:\USERS\ERIC\DOCUMENTS\VISUAL STUDIO 2013\LIBRARIES\SFML-2.1\SRC\SFML\GRAPHICS\RENDERTEXTURE.CPP
^C:\USERS\ERIC\DOCUMENTS\VISUAL STUDIO 2013\LIBRARIES\SFML-2.1\SRC\SFML\GRAPHICS\RENDERTARGET.CPP
/c /I"C:/Users/Eric/Documents/Visual Studio 2013/Libraries/SFML-2.1/include" /I"C:/Users/Eric/Documents/Visual Studio 2013/Libraries/SFML-2.1/src" /I"C:/Users/Eric/Documents/Visual Studio 2013/Libraries/SFML-2.1/extlibs/headers/libfreetype/windows" /I"C:/Users/Eric/Documents/Visual Studio 2013/Libraries/SFML-2.1/extlibs/headers" /I"C:/Users/Eric/Documents/Visual Studio 2013/Libraries/SFML-2.1/extlibs/headers/jpeg" /nologo /W3 /WX- /O2 /Ob2 /D WIN32 /D _WINDOWS /D NDEBUG /D _CRT_SECURE_NO_DEPRECATE /D GLEW_STATIC /D STBI_FAILURE_USERMSG /D "CMAKE_INTDIR=\"Release\"" /D SFML_GRAPHICS_EXPORTS /D _WINDLL /D _MBCS /Gm- /EHsc /MD /GS /fp:precise /Zc:wchar_t /Zc:forScope /GR /Fo"SFML-GRAPHICS.DIR\RELEASE\\" /Fd"SFML-GRAPHICS.DIR\RELEASE\VC120.PDB" /Gd /TP C:\USERS\ERIC\DOCUMENTS\VISUAL STUDIO 2013\LIBRARIES\SFML-2.1\SRC\SFML\GRAPHICS\RENDERTARGET.CPP
^C:\USERS\ERIC\DOCUMENTS\VISUAL STUDIO 2013\LIBRARIES\SFML-2.1\SRC\SFML\GRAPHICS\RENDERWINDOW.CPP
/c /I"C:/Users/Eric/Documents/Visual Studio 2013/Libraries/SFML-2.1/include" /I"C:/Users/Eric/Documents/Visual Studio 2013/Libraries/SFML-2.1/src" /I"C:/Users/Eric/Documents/Visual Studio 2013/Libraries/SFML-2.1/extlibs/headers/libfreetype/windows" /I"C:/Users/Eric/Documents/Visual Studio 2013/Libraries/SFML-2.1/extlibs/headers" /I"C:/Users/Eric/Documents/Visual Studio 2013/Libraries/SFML-2.1/extlibs/headers/jpeg" /nologo /W3 /WX- /O2 /Ob2 /D WIN32 /D _WINDOWS /D NDEBUG /D _CRT_SECURE_NO_DEPRECATE /D GLEW_STATIC /D STBI_FAILURE_USERMSG /D "CMAKE_INTDIR=\"Release\"" /D SFML_GRAPHICS_EXPORTS /D _WINDLL /D _MBCS /Gm- /EHsc /MD /GS /fp:precise /Zc:wchar_t /Zc:forScope /GR /Fo"SFML-GRAPHICS.DIR\RELEASE\\" /Fd"SFML-GRAPHICS.DIR\RELEASE\VC120.PDB" /Gd /TP C:\USERS\ERIC\DOCUMENTS\VISUAL STUDIO 2013\LIBRARIES\SFML-2.1\SRC\SFML\GRAPHICS\RENDERWINDOW.CPP
^C:\USERS\ERIC\DOCUMENTS\VISUAL STUDIO 2013\LIBRARIES\SFML-2.1\SRC\SFML\GRAPHICS\SHADER.CPP
/c /I"C:/Users/Eric/Documents/Visual Studio 2013/Libraries/SFML-2.1/include" /I"C:/Users/Eric/Documents/Visual Studio 2013/Libraries/SFML-2.1/src" /I"C:/Users/Eric/Documents/Visual Studio 2013/Libraries/SFML-2.1/extlibs/headers/libfreetype/windows" /I"C:/Users/Eric/Documents/Visual Studio 2013/Libraries/SFML-2.1/extlibs/headers" /I"C:/Users/Eric/Documents/Visual Studio 2013/Libraries/SFML-2.1/extlibs/headers/jpeg" /nologo /W3 /WX- /O2 /Ob2 /D WIN32 /D _WINDOWS /D NDEBUG /D _CRT_SECURE_NO_DEPRECATE /D GLEW_STATIC /D STBI_FAILURE_USERMSG /D "CMAKE_INTDIR=\"Release\"" /D SFML_GRAPHICS_EXPORTS /D _WINDLL /D _MBCS /Gm- /EHsc /MD /GS /fp:precise /Zc:wchar_t /Zc:forScope /GR /Fo"SFML-GRAPHICS.DIR\RELEASE\\" /Fd"SFML-GRAPHICS.DIR\RELEASE\VC120.PDB" /Gd /TP C:\USERS\ERIC\DOCUMENTS\VISUAL STUDIO 2013\LIBRARIES\SFML-2.1\SRC\SFML\GRAPHICS\SHADER.CPP
^C:\USERS\ERIC\DOCUMENTS\VISUAL STUDIO 2013\LIBRARIES\SFML-2.1\SRC\SFML\GRAPHICS\TEXTURE.CPP
/c /I"C:/Users/Eric/Documents/Visual Studio 2013/Libraries/SFML-2.1/include" /I"C:/Users/Eric/Documents/Visual Studio 2013/Libraries/SFML-2.1/src" /I"C:/Users/Eric/Documents/Visual Studio 2013/Libraries/SFML-2.1/extlibs/headers/libfreetype/windows" /I"C:/Users/Eric/Documents/Visual Studio 2013/Libraries/SFML-2.1/extlibs/headers" /I"C:/Users/Eric/Documents/Visual Studio 2013/Libraries/SFML-2.1/extlibs/headers/jpeg" /nologo /W3 /WX- /O2 /Ob2 /D WIN32 /D _WINDOWS /D NDEBUG /D _CRT_SECURE_NO_DEPRECATE /D GLEW_STATIC /D STBI_FAILURE_USERMSG /D "CMAKE_INTDIR=\"Release\"" /D SFML_GRAPHICS_EXPORTS /D _WINDLL /D _MBCS /Gm- /EHsc /MD /GS /fp:precise /Zc:wchar_t /Zc:forScope /GR /Fo"SFML-GRAPHICS.DIR\RELEASE\\" /Fd"SFML-GRAPHICS.DIR\RELEASE\VC120.PDB" /Gd /TP C:\USERS\ERIC\DOCUMENTS\VISUAL STUDIO 2013\LIBRARIES\SFML-2.1\SRC\SFML\GRAPHICS\TEXTURE.CPP
^C:\USERS\ERIC\DOCUMENTS\VISUAL STUDIO 2013\LIBRARIES\SFML-2.1\SRC\SFML\GRAPHICS\TEXTURESAVER.CPP
/c /I"C:/Users/Eric/Documents/Visual Studio 2013/Libraries/SFML-2.1/include" /I"C:/Users/Eric/Documents/Visual Studio 2013/Libraries/SFML-2.1/src" /I"C:/Users/Eric/Documents/Visual Studio 2013/Libraries/SFML-2.1/extlibs/headers/libfreetype/windows" /I"C:/Users/Eric/Documents/Visual Studio 2013/Libraries/SFML-2.1/extlibs/headers" /I"C:/Users/Eric/Documents/Visual Studio 2013/Libraries/SFML-2.1/extlibs/headers/jpeg" /nologo /W3 /WX- /O2 /Ob2 /D WIN32 /D _WINDOWS /D NDEBUG /D _CRT_SECURE_NO_DEPRECATE /D GLEW_STATIC /D STBI_FAILURE_USERMSG /D "CMAKE_INTDIR=\"Release\"" /D SFML_GRAPHICS_EXPORTS /D _WINDLL /D _MBCS /Gm- /EHsc /MD /GS /fp:precise /Zc:wchar_t /Zc:forScope /GR /Fo"SFML-GRAPHICS.DIR\RELEASE\\" /Fd"SFML-GRAPHICS.DIR\RELEASE\VC120.PDB" /Gd /TP C:\USERS\ERIC\DOCUMENTS\VISUAL STUDIO 2013\LIBRARIES\SFML-2.1\SRC\SFML\GRAPHICS\TEXTURESAVER.CPP
^C:\USERS\ERIC\DOCUMENTS\VISUAL STUDIO 2013\LIBRARIES\SFML-2.1\SRC\SFML\GRAPHICS\TRANSFORM.CPP
/c /I"C:/Users/Eric/Documents/Visual Studio 2013/Libraries/SFML-2.1/include" /I"C:/Users/Eric/Documents/Visual Studio 2013/Libraries/SFML-2.1/src" /I"C:/Users/Eric/Documents/Visual Studio 2013/Libraries/SFML-2.1/extlibs/headers/libfreetype/windows" /I"C:/Users/Eric/Documents/Visual Studio 2013/Libraries/SFML-2.1/extlibs/headers" /I"C:/Users/Eric/Documents/Visual Studio 2013/Libraries/SFML-2.1/extlibs/headers/jpeg" /nologo /W3 /WX- /O2 /Ob2 /D WIN32 /D _WINDOWS /D NDEBUG /D _CRT_SECURE_NO_DEPRECATE /D GLEW_STATIC /D STBI_FAILURE_USERMSG /D "CMAKE_INTDIR=\"Release\"" /D SFML_GRAPHICS_EXPORTS /D _WINDLL /D _MBCS /Gm- /EHsc /MD /GS /fp:precise /Zc:wchar_t /Zc:forScope /GR /Fo"SFML-GRAPHICS.DIR\RELEASE\\" /Fd"SFML-GRAPHICS.DIR\RELEASE\VC120.PDB" /Gd /TP C:\USERS\ERIC\DOCUMENTS\VISUAL STUDIO 2013\LIBRARIES\SFML-2.1\SRC\SFML\GRAPHICS\TRANSFORM.CPP
^C:\USERS\ERIC\DOCUMENTS\VISUAL STUDIO 2013\LIBRARIES\SFML-2.1\SRC\SFML\GRAPHICS\TRANSFORMABLE.CPP
/c /I"C:/Users/Eric/Documents/Visual Studio 2013/Libraries/SFML-2.1/include" /I"C:/Users/Eric/Documents/Visual Studio 2013/Libraries/SFML-2.1/src" /I"C:/Users/Eric/Documents/Visual Studio 2013/Libraries/SFML-2.1/extlibs/headers/libfreetype/windows" /I"C:/Users/Eric/Documents/Visual Studio 2013/Libraries/SFML-2.1/extlibs/headers" /I"C:/Users/Eric/Documents/Visual Studio 2013/Libraries/SFML-2.1/extlibs/headers/jpeg" /nologo /W3 /WX- /O2 /Ob2 /D WIN32 /D _WINDOWS /D NDEBUG /D _CRT_SECURE_NO_DEPRECATE /D GLEW_STATIC /D STBI_FAILURE_USERMSG /D "CMAKE_INTDIR=\"Release\"" /D SFML_GRAPHICS_EXPORTS /D _WINDLL /D _MBCS /Gm- /EHsc /MD /GS /fp:precise /Zc:wchar_t /Zc:forScope /GR /Fo"SFML-GRAPHICS.DIR\RELEASE\\" /Fd"SFML-GRAPHICS.DIR\RELEASE\VC120.PDB" /Gd /TP C:\USERS\ERIC\DOCUMENTS\VISUAL STUDIO 2013\LIBRARIES\SFML-2.1\SRC\SFML\GRAPHICS\TRANSFORMABLE.CPP
^C:\USERS\ERIC\DOCUMENTS\VISUAL STUDIO 2013\LIBRARIES\SFML-2.1\SRC\SFML\GRAPHICS\VIEW.CPP
/c /I"C:/Users/Eric/Documents/Visual Studio 2013/Libraries/SFML-2.1/include" /I"C:/Users/Eric/Documents/Visual Studio 2013/Libraries/SFML-2.1/src" /I"C:/Users/Eric/Documents/Visual Studio 2013/Libraries/SFML-2.1/extlibs/headers/libfreetype/windows" /I"C:/Users/Eric/Documents/Visual Studio 2013/Libraries/SFML-2.1/extlibs/headers" /I"C:/Users/Eric/Documents/Visual Studio 2013/Libraries/SFML-2.1/extlibs/headers/jpeg" /nologo /W3 /WX- /O2 /Ob2 /D WIN32 /D _WINDOWS /D NDEBUG /D _CRT_SECURE_NO_DEPRECATE /D GLEW_STATIC /D STBI_FAILURE_USERMSG /D "CMAKE_INTDIR=\"Release\"" /D SFML_GRAPHICS_EXPORTS /D _WINDLL /D _MBCS /Gm- /EHsc /MD /GS /fp:precise /Zc:wchar_t /Zc:forScope /GR /Fo"SFML-GRAPHICS.DIR\RELEASE\\" /Fd"SFML-GRAPHICS.DIR\RELEASE\VC120.PDB" /Gd /TP C:\USERS\ERIC\DOCUMENTS\VISUAL STUDIO 2013\LIBRARIES\SFML-2.1\SRC\SFML\GRAPHICS\VIEW.CPP
^C:\USERS\ERIC\DOCUMENTS\VISUAL STUDIO 2013\LIBRARIES\SFML-2.1\SRC\SFML\GRAPHICS\VERTEX.CPP
/c /I"C:/Users/Eric/Documents/Visual Studio 2013/Libraries/SFML-2.1/include" /I"C:/Users/Eric/Documents/Visual Studio 2013/Libraries/SFML-2.1/src" /I"C:/Users/Eric/Documents/Visual Studio 2013/Libraries/SFML-2.1/extlibs/headers/libfreetype/windows" /I"C:/Users/Eric/Documents/Visual Studio 2013/Libraries/SFML-2.1/extlibs/headers" /I"C:/Users/Eric/Documents/Visual Studio 2013/Libraries/SFML-2.1/extlibs/headers/jpeg" /nologo /W3 /WX- /O2 /Ob2 /D WIN32 /D _WINDOWS /D NDEBUG /D _CRT_SECURE_NO_DEPRECATE /D GLEW_STATIC /D STBI_FAILURE_USERMSG /D "CMAKE_INTDIR=\"Release\"" /D SFML_GRAPHICS_EXPORTS /D _WINDLL /D _MBCS /Gm- /EHsc /MD /GS /fp:precise /Zc:wchar_t /Zc:forScope /GR /Fo"SFML-GRAPHICS.DIR\RELEASE\\" /Fd"SFML-GRAPHICS.DIR\RELEASE\VC120.PDB" /Gd /TP C:\USERS\ERIC\DOCUMENTS\VISUAL STUDIO 2013\LIBRARIES\SFML-2.1\SRC\SFML\GRAPHICS\VERTEX.CPP
^C:\USERS\ERIC\DOCUMENTS\VISUAL STUDIO 2013\LIBRARIES\SFML-2.1\SRC\SFML\GRAPHICS\SHAPE.CPP
/c /I"C:/Users/Eric/Documents/Visual Studio 2013/Libraries/SFML-2.1/include" /I"C:/Users/Eric/Documents/Visual Studio 2013/Libraries/SFML-2.1/src" /I"C:/Users/Eric/Documents/Visual Studio 2013/Libraries/SFML-2.1/extlibs/headers/libfreetype/windows" /I"C:/Users/Eric/Documents/Visual Studio 2013/Libraries/SFML-2.1/extlibs/headers" /I"C:/Users/Eric/Documents/Visual Studio 2013/Libraries/SFML-2.1/extlibs/headers/jpeg" /nologo /W3 /WX- /O2 /Ob2 /D WIN32 /D _WINDOWS /D NDEBUG /D _CRT_SECURE_NO_DEPRECATE /D GLEW_STATIC /D STBI_FAILURE_USERMSG /D "CMAKE_INTDIR=\"Release\"" /D SFML_GRAPHICS_EXPORTS /D _WINDLL /D _MBCS /Gm- /EHsc /MD /GS /fp:precise /Zc:wchar_t /Zc:forScope /GR /Fo"SFML-GRAPHICS.DIR\RELEASE\\" /Fd"SFML-GRAPHICS.DIR\RELEASE\VC120.PDB" /Gd /TP C:\USERS\ERIC\DOCUMENTS\VISUAL STUDIO 2013\LIBRARIES\SFML-2.1\SRC\SFML\GRAPHICS\SHAPE.CPP
^C:\USERS\ERIC\DOCUMENTS\VISUAL STUDIO 2013\LIBRARIES\SFML-2.1\SRC\SFML\GRAPHICS\CIRCLESHAPE.CPP
/c /I"C:/Users/Eric/Documents/Visual Studio 2013/Libraries/SFML-2.1/include" /I"C:/Users/Eric/Documents/Visual Studio 2013/Libraries/SFML-2.1/src" /I"C:/Users/Eric/Documents/Visual Studio 2013/Libraries/SFML-2.1/extlibs/headers/libfreetype/windows" /I"C:/Users/Eric/Documents/Visual Studio 2013/Libraries/SFML-2.1/extlibs/headers" /I"C:/Users/Eric/Documents/Visual Studio 2013/Libraries/SFML-2.1/extlibs/headers/jpeg" /nologo /W3 /WX- /O2 /Ob2 /D WIN32 /D _WINDOWS /D NDEBUG /D _CRT_SECURE_NO_DEPRECATE /D GLEW_STATIC /D STBI_FAILURE_USERMSG /D "CMAKE_INTDIR=\"Release\"" /D SFML_GRAPHICS_EXPORTS /D _WINDLL /D _MBCS /Gm- /EHsc /MD /GS /fp:precise /Zc:wchar_t /Zc:forScope /GR /Fo"SFML-GRAPHICS.DIR\RELEASE\\" /Fd"SFML-GRAPHICS.DIR\RELEASE\VC120.PDB" /Gd /TP C:\USERS\ERIC\DOCUMENTS\VISUAL STUDIO 2013\LIBRARIES\SFML-2.1\SRC\SFML\GRAPHICS\CIRCLESHAPE.CPP
^C:\USERS\ERIC\DOCUMENTS\VISUAL STUDIO 2013\LIBRARIES\SFML-2.1\SRC\SFML\GRAPHICS\RECTANGLESHAPE.CPP
/c /I"C:/Users/Eric/Documents/Visual Studio 2013/Libraries/SFML-2.1/include" /I"C:/Users/Eric/Documents/Visual Studio 2013/Libraries/SFML-2.1/src" /I"C:/Users/Eric/Documents/Visual Studio 2013/Libraries/SFML-2.1/extlibs/headers/libfreetype/windows" /I"C:/Users/Eric/Documents/Visual Studio 2013/Libraries/SFML-2.1/extlibs/headers" /I"C:/Users/Eric/Documents/Visual Studio 2013/Libraries/SFML-2.1/extlibs/headers/jpeg" /nologo /W3 /WX- /O2 /Ob2 /D WIN32 /D _WINDOWS /D NDEBUG /D _CRT_SECURE_NO_DEPRECATE /D GLEW_STATIC /D STBI_FAILURE_USERMSG /D "CMAKE_INTDIR=\"Release\"" /D SFML_GRAPHICS_EXPORTS /D _WINDLL /D _MBCS /Gm- /EHsc /MD /GS /fp:precise /Zc:wchar_t /Zc:forScope /GR /Fo"SFML-GRAPHICS.DIR\RELEASE\\" /Fd"SFML-GRAPHICS.DIR\RELEASE\VC120.PDB" /Gd /TP C:\USERS\ERIC\DOCUMENTS\VISUAL STUDIO 2013\LIBRARIES\SFML-2.1\SRC\SFML\GRAPHICS\RECTANGLESHAPE.CPP
^C:\USERS\ERIC\DOCUMENTS\VISUAL STUDIO 2013\LIBRARIES\SFML-2.1\SRC\SFML\GRAPHICS\CONVEXSHAPE.CPP
/c /I"C:/Users/Eric/Documents/Visual Studio 2013/Libraries/SFML-2.1/include" /I"C:/Users/Eric/Documents/Visual Studio 2013/Libraries/SFML-2.1/src" /I"C:/Users/Eric/Documents/Visual Studio 2013/Libraries/SFML-2.1/extlibs/headers/libfreetype/windows" /I"C:/Users/Eric/Documents/Visual Studio 2013/Libraries/SFML-2.1/extlibs/headers" /I"C:/Users/Eric/Documents/Visual Studio 2013/Libraries/SFML-2.1/extlibs/headers/jpeg" /nologo /W3 /WX- /O2 /Ob2 /D WIN32 /D _WINDOWS /D NDEBUG /D _CRT_SECURE_NO_DEPRECATE /D GLEW_STATIC /D STBI_FAILURE_USERMSG /D "CMAKE_INTDIR=\"Release\"" /D SFML_GRAPHICS_EXPORTS /D _WINDLL /D _MBCS /Gm- /EHsc /MD /GS /fp:precise /Zc:wchar_t /Zc:forScope /GR /Fo"SFML-GRAPHICS.DIR\RELEASE\\" /Fd"SFML-GRAPHICS.DIR\RELEASE\VC120.PDB" /Gd /TP C:\USERS\ERIC\DOCUMENTS\VISUAL STUDIO 2013\LIBRARIES\SFML-2.1\SRC\SFML\GRAPHICS\CONVEXSHAPE.CPP
^C:\USERS\ERIC\DOCUMENTS\VISUAL STUDIO 2013\LIBRARIES\SFML-2.1\SRC\SFML\GRAPHICS\SPRITE.CPP
/c /I"C:/Users/Eric/Documents/Visual Studio 2013/Libraries/SFML-2.1/include" /I"C:/Users/Eric/Documents/Visual Studio 2013/Libraries/SFML-2.1/src" /I"C:/Users/Eric/Documents/Visual Studio 2013/Libraries/SFML-2.1/extlibs/headers/libfreetype/windows" /I"C:/Users/Eric/Documents/Visual Studio 2013/Libraries/SFML-2.1/extlibs/headers" /I"C:/Users/Eric/Documents/Visual Studio 2013/Libraries/SFML-2.1/extlibs/headers/jpeg" /nologo /W3 /WX- /O2 /Ob2 /D WIN32 /D _WINDOWS /D NDEBUG /D _CRT_SECURE_NO_DEPRECATE /D GLEW_STATIC /D STBI_FAILURE_USERMSG /D "CMAKE_INTDIR=\"Release\"" /D SFML_GRAPHICS_EXPORTS /D _WINDLL /D _MBCS /Gm- /EHsc /MD /GS /fp:precise /Zc:wchar_t /Zc:forScope /GR /Fo"SFML-GRAPHICS.DIR\RELEASE\\" /Fd"SFML-GRAPHICS.DIR\RELEASE\VC120.PDB" /Gd /TP C:\USERS\ERIC\DOCUMENTS\VISUAL STUDIO 2013\LIBRARIES\SFML-2.1\SRC\SFML\GRAPHICS\SPRITE.CPP
^C:\USERS\ERIC\DOCUMENTS\VISUAL STUDIO 2013\LIBRARIES\SFML-2.1\SRC\SFML\GRAPHICS\TEXT.CPP
/c /I"C:/Users/Eric/Documents/Visual Studio 2013/Libraries/SFML-2.1/include" /I"C:/Users/Eric/Documents/Visual Studio 2013/Libraries/SFML-2.1/src" /I"C:/Users/Eric/Documents/Visual Studio 2013/Libraries/SFML-2.1/extlibs/headers/libfreetype/windows" /I"C:/Users/Eric/Documents/Visual Studio 2013/Libraries/SFML-2.1/extlibs/headers" /I"C:/Users/Eric/Documents/Visual Studio 2013/Libraries/SFML-2.1/extlibs/headers/jpeg" /nologo /W3 /WX- /O2 /Ob2 /D WIN32 /D _WINDOWS /D NDEBUG /D _CRT_SECURE_NO_DEPRECATE /D GLEW_STATIC /D STBI_FAILURE_USERMSG /D "CMAKE_INTDIR=\"Release\"" /D SFML_GRAPHICS_EXPORTS /D _WINDLL /D _MBCS /Gm- /EHsc /MD /GS /fp:precise /Zc:wchar_t /Zc:forScope /GR /Fo"SFML-GRAPHICS.DIR\RELEASE\\" /Fd"SFML-GRAPHICS.DIR\RELEASE\VC120.PDB" /Gd /TP C:\USERS\ERIC\DOCUMENTS\VISUAL STUDIO 2013\LIBRARIES\SFML-2.1\SRC\SFML\GRAPHICS\TEXT.CPP
^C:\USERS\ERIC\DOCUMENTS\VISUAL STUDIO 2013\LIBRARIES\SFML-2.1\SRC\SFML\GRAPHICS\VERTEXARRAY.CPP
/c /I"C:/Users/Eric/Documents/Visual Studio 2013/Libraries/SFML-2.1/include" /I"C:/Users/Eric/Documents/Visual Studio 2013/Libraries/SFML-2.1/src" /I"C:/Users/Eric/Documents/Visual Studio 2013/Libraries/SFML-2.1/extlibs/headers/libfreetype/windows" /I"C:/Users/Eric/Documents/Visual Studio 2013/Libraries/SFML-2.1/extlibs/headers" /I"C:/Users/Eric/Documents/Visual Studio 2013/Libraries/SFML-2.1/extlibs/headers/jpeg" /nologo /W3 /WX- /O2 /Ob2 /D WIN32 /D _WINDOWS /D NDEBUG /D _CRT_SECURE_NO_DEPRECATE /D GLEW_STATIC /D STBI_FAILURE_USERMSG /D "CMAKE_INTDIR=\"Release\"" /D SFML_GRAPHICS_EXPORTS /D _WINDLL /D _MBCS /Gm- /EHsc /MD /GS /fp:precise /Zc:wchar_t /Zc:forScope /GR /Fo"SFML-GRAPHICS.DIR\RELEASE\\" /Fd"SFML-GRAPHICS.DIR\RELEASE\VC120.PDB" /Gd /TP C:\USERS\ERIC\DOCUMENTS\VISUAL STUDIO 2013\LIBRARIES\SFML-2.1\SRC\SFML\GRAPHICS\VERTEXARRAY.CPP
^C:\USERS\ERIC\DOCUMENTS\VISUAL STUDIO 2013\LIBRARIES\SFML-2.1\SRC\SFML\GRAPHICS\RENDERTEXTUREIMPL.CPP
/c /I"C:/Users/Eric/Documents/Visual Studio 2013/Libraries/SFML-2.1/include" /I"C:/Users/Eric/Documents/Visual Studio 2013/Libraries/SFML-2.1/src" /I"C:/Users/Eric/Documents/Visual Studio 2013/Libraries/SFML-2.1/extlibs/headers/libfreetype/windows" /I"C:/Users/Eric/Documents/Visual Studio 2013/Libraries/SFML-2.1/extlibs/headers" /I"C:/Users/Eric/Documents/Visual Studio 2013/Libraries/SFML-2.1/extlibs/headers/jpeg" /nologo /W3 /WX- /O2 /Ob2 /D WIN32 /D _WINDOWS /D NDEBUG /D _CRT_SECURE_NO_DEPRECATE /D GLEW_STATIC /D STBI_FAILURE_USERMSG /D "CMAKE_INTDIR=\"Release\"" /D SFML_GRAPHICS_EXPORTS /D _WINDLL /D _MBCS /Gm- /EHsc /MD /GS /fp:precise /Zc:wchar_t /Zc:forScope /GR /Fo"SFML-GRAPHICS.DIR\RELEASE\\" /Fd"SFML-GRAPHICS.DIR\RELEASE\VC120.PDB" /Gd /TP C:\USERS\ERIC\DOCUMENTS\VISUAL STUDIO 2013\LIBRARIES\SFML-2.1\SRC\SFML\GRAPHICS\RENDERTEXTUREIMPL.CPP
^C:\USERS\ERIC\DOCUMENTS\VISUAL STUDIO 2013\LIBRARIES\SFML-2.1\SRC\SFML\GRAPHICS\RENDERTEXTUREIMPLFBO.CPP
/c /I"C:/Users/Eric/Documents/Visual Studio 2013/Libraries/SFML-2.1/include" /I"C:/Users/Eric/Documents/Visual Studio 2013/Libraries/SFML-2.1/src" /I"C:/Users/Eric/Documents/Visual Studio 2013/Libraries/SFML-2.1/extlibs/headers/libfreetype/windows" /I"C:/Users/Eric/Documents/Visual Studio 2013/Libraries/SFML-2.1/extlibs/headers" /I"C:/Users/Eric/Documents/Visual Studio 2013/Libraries/SFML-2.1/extlibs/headers/jpeg" /nologo /W3 /WX- /O2 /Ob2 /D WIN32 /D _WINDOWS /D NDEBUG /D _CRT_SECURE_NO_DEPRECATE /D GLEW_STATIC /D STBI_FAILURE_USERMSG /D "CMAKE_INTDIR=\"Release\"" /D SFML_GRAPHICS_EXPORTS /D _WINDLL /D _MBCS /Gm- /EHsc /MD /GS /fp:precise /Zc:wchar_t /Zc:forScope /GR /Fo"SFML-GRAPHICS.DIR\RELEASE\\" /Fd"SFML-GRAPHICS.DIR\RELEASE\VC120.PDB" /Gd /TP C:\USERS\ERIC\DOCUMENTS\VISUAL STUDIO 2013\LIBRARIES\SFML-2.1\SRC\SFML\GRAPHICS\RENDERTEXTUREIMPLFBO.CPP
^C:\USERS\ERIC\DOCUMENTS\VISUAL STUDIO 2013\LIBRARIES\SFML-2.1\SRC\SFML\GRAPHICS\RENDERTEXTUREIMPLDEFAULT.CPP
/c /I"C:/Users/Eric/Documents/Visual Studio 2013/Libraries/SFML-2.1/include" /I"C:/Users/Eric/Documents/Visual Studio 2013/Libraries/SFML-2.1/src" /I"C:/Users/Eric/Documents/Visual Studio 2013/Libraries/SFML-2.1/extlibs/headers/libfreetype/windows" /I"C:/Users/Eric/Documents/Visual Studio 2013/Libraries/SFML-2.1/extlibs/headers" /I"C:/Users/Eric/Documents/Visual Studio 2013/Libraries/SFML-2.1/extlibs/headers/jpeg" /nologo /W3 /WX- /O2 /Ob2 /D WIN32 /D _WINDOWS /D NDEBUG /D _CRT_SECURE_NO_DEPRECATE /D GLEW_STATIC /D STBI_FAILURE_USERMSG /D "CMAKE_INTDIR=\"Release\"" /D SFML_GRAPHICS_EXPORTS /D _WINDLL /D _MBCS /Gm- /EHsc /MD /GS /fp:precise /Zc:wchar_t /Zc:forScope /GR /Fo"SFML-GRAPHICS.DIR\RELEASE\\" /Fd"SFML-GRAPHICS.DIR\RELEASE\VC120.PDB" /Gd /TP C:\USERS\ERIC\DOCUMENTS\VISUAL STUDIO 2013\LIBRARIES\SFML-2.1\SRC\SFML\GRAPHICS\RENDERTEXTUREIMPLDEFAULT.CPP
